<?xml version="1.0" encoding="UTF-8" standalone="no"?>
<svg
   xmlns:sketch="http://www.bohemiancoding.com/sketch/ns"
   xmlns:dc="http://purl.org/dc/elements/1.1/"
   xmlns:cc="http://creativecommons.org/ns#"
   xmlns:rdf="http://www.w3.org/1999/02/22-rdf-syntax-ns#"
   xmlns:svg="http://www.w3.org/2000/svg"
   xmlns="http://www.w3.org/2000/svg"
   xmlns:sodipodi="http://sodipodi.sourceforge.net/DTD/sodipodi-0.dtd"
   xmlns:inkscape="http://www.inkscape.org/namespaces/inkscape"
   width="16px"
   height="16px"
   viewBox="0 0 16 16"
   version="1.1"
   id="svg13"
   sodipodi:docname="deployment.svg"
   inkscape:version="0.92.5 (2060ec1f9f, 2020-04-08)">
  <metadata
     id="metadata17">
    <rdf:RDF>
      <cc:Work
         rdf:about="">
        <dc:format>image/svg+xml</dc:format>
        <dc:type
           rdf:resource="http://purl.org/dc/dcmitype/StillImage" />
        <dc:title>bug</dc:title>
      </cc:Work>
    </rdf:RDF>
  </metadata>
  <sodipodi:namedview
     pagecolor="#ffffff"
     bordercolor="#666666"
     borderopacity="1"
     objecttolerance="10"
     gridtolerance="10"
     guidetolerance="10"
     inkscape:pageopacity="0"
     inkscape:pageshadow="2"
     inkscape:window-width="1848"
     inkscape:window-height="1016"
     id="namedview15"
     showgrid="false"
     inkscape:zoom="37.034718"
     inkscape:cx="6.4815018"
     inkscape:cy="8.6053794"
     inkscape:window-x="72"
     inkscape:window-y="27"
     inkscape:window-maximized="1"
     inkscape:current-layer="Page-1" />
  <!-- Generator: Sketch 3.5.2 (25235) - http://www.bohemiancoding.com/sketch -->
  <title
     id="title2">bug</title>
  <desc
     id="desc4">Created with Sketch.</desc>
  <defs
     id="defs6" />
  <g
     id="Page-1"
     stroke="none"
     stroke-width="1"
     fill="none"
     fill-rule="evenodd"
     sketch:type="MSPage">
    <g
       id="bug"
       sketch:type="MSArtboardGroup">
      <g
         id="Bug"
         sketch:type="MSLayerGroup"
         transform="translate(1.000000, 1.000000)">
        <rect
           id="Rectangle-36"
           sketch:type="MSShapeGroup"
           x="0"
           y="0"
           width="14"
           height="14"
           rx="2"
           fill="#E5493A"
           style="fill:#a04bff;fill-opacity:1" />
      </g>
    </g>
    <path
       style="fill:#ffffff;fill-opacity:1;stroke:none;stroke-width:0.97398019px;stroke-linecap:butt;stroke-linejoin:miter;stroke-opacity:1"
       d="M 3.3506329,12.643953 4.0818874,10.964445 3,10.601372 C 3.9774914,9.56393 4.4803132,9.840377 5.1960699,9.177186 L 6.4325127,8.052829 5.0484349,6.6848617 C 6.1003341,5.9540297 6.3771497,5.7104189 7.7612273,5.5042869 L 9.828117,3.5366622 c 0.663896,-0.6320112 2.043822,-0.5387545 3.171845,-0.5223576 0.0023,1.215711 -0.09756,2.261366 -0.717414,2.9584644 L 10.566292,7.9029151 C 10.437708,9.165029 10.215659,10.057932 9.089942,10.994896 L 7.9826798,9.551972 6.6908738,10.863722 C 6.1168563,11.446602 6.0818797,12.063035 5.1591613,13 L 4.8823457,12.025556 Z"
       id="path5202"
       inkscape:connector-curvature="0"
       sodipodi:nodetypes="cccccccscscccsccc" />
  </g>
</svg>
